{
    "service": "gmail",
    "auth": {
        "type": "OAuth2",
        "user": "luisdacade@gmail.com",
        "clientId": "244760138403-ku71tmm60k5picrmt36c1o8l8u1cqrhl.apps.googleusercontent.com",
        "clientSecret": "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",
        "refreshToken": "1//04uY_md6NmXDYCgYIARAAGAQSNwF-L9IrNXW3oEagYVdTEtR8Ee4Z3PXrIuRI46PKMfSr40JSSABPr4KqcDJyC1LkUB1F0V--kj4"
    }
}